[
  [
    {
      "AmiLaunchIndex": 0,
      "ImageId": "ami-00fa576fb10a52a1c",
      "InstanceId": "i-0eb24374f86318f94",
      "InstanceType": "t2.micro",
      "KeyName": "gitlab",
      "LaunchTime": "2022-01-23T13:21:30+00:00",
      "Monitoring": {
        "State": "disabled"
      },
      "Placement": {
        "AvailabilityZone": "us-east-1a",
        "GroupName": "",
        "Tenancy": "default"
      },
      "PrivateDnsName": "ip-172-31-92-111.ec2.internal",
      "PrivateIpAddress": "172.31.92.111",
      "ProductCodes": [],
      "PublicDnsName": "ec2-3-84-195-109.compute-1.amazonaws.com",
      "PublicIpAddress": "3.84.195.109",
      "State": {
        "Code": 16,
        "Name": "running"
      },
      "StateTransitionReason": "",
      "SubnetId": "subnet-0e5394ed6139c5e2f",
      "VpcId": "vpc-0172b0a9946fd3154",
      "Architecture": "x86_64",
      "BlockDeviceMappings": [
        {
          "DeviceName": "/dev/sda1",
          "Ebs": {
            "AttachTime": "2022-01-23T13:21:31+00:00",
            "DeleteOnTermination": true,
            "Status": "attached",
            "VolumeId": "vol-0ba31de498eb33bf8"
          }
        }
      ],
      "ClientToken": "7650E9EC-4F37-4517-98FF-1BD72C9AC60A",
      "EbsOptimized": false,
      "EnaSupport": true,
      "Hypervisor": "xen",
      "NetworkInterfaces": [
        {
          "Association": {
            "IpOwnerId": "amazon",
            "PublicDnsName": "ec2-3-84-195-109.compute-1.amazonaws.com",
            "PublicIp": "3.84.195.109"
          },
          "Attachment": {
            "AttachTime": "2022-01-23T13:21:30+00:00",
            "AttachmentId": "eni-attach-09bfb25ae41561a74",
            "DeleteOnTermination": true,
            "DeviceIndex": 0,
            "Status": "attached",
            "NetworkCardIndex": 0
          },
          "Description": "",
          "Groups": [
            {
              "GroupName": "Servers Security Group",
              "GroupId": "sg-0f22225882283843f"
            }
          ],
          "Ipv6Addresses": [],
          "MacAddress": "12:33:5b:b4:11:d3",
          "NetworkInterfaceId": "eni-0cd1c4b04c09078a7",
          "OwnerId": "209310342610",
          "PrivateDnsName": "ip-172-31-92-111.ec2.internal",
          "PrivateIpAddress": "172.31.92.111",
          "PrivateIpAddresses": [
            {
              "Association": {
                "IpOwnerId": "amazon",
                "PublicDnsName": "ec2-3-84-195-109.compute-1.amazonaws.com",
                "PublicIp": "3.84.195.109"
              },
              "Primary": true,
              "PrivateDnsName": "ip-172-31-92-111.ec2.internal",
              "PrivateIpAddress": "172.31.92.111"
            }
          ],
          "SourceDestCheck": true,
          "Status": "in-use",
          "SubnetId": "subnet-0e5394ed6139c5e2f",
          "VpcId": "vpc-0172b0a9946fd3154",
          "InterfaceType": "interface"
        }
      ],
      "RootDeviceName": "/dev/sda1",
      "RootDeviceType": "ebs",
      "SecurityGroups": [
        {
          "GroupName": "Servers Security Group",
          "GroupId": "sg-0f22225882283843f"
        }
      ],
      "SourceDestCheck": true,
      "Tags": [
        {
          "Key": "Name",
          "Value": "mon"
        }
      ],
      "VirtualizationType": "hvm",
      "CpuOptions": {
        "CoreCount": 1,
        "ThreadsPerCore": 1
      },
      "CapacityReservationSpecification": {
        "CapacityReservationPreference": "open"
      },
      "HibernationOptions": {
        "Configured": false
      },
      "MetadataOptions": {
        "State": "applied",
        "HttpTokens": "optional",
        "HttpPutResponseHopLimit": 1,
        "HttpEndpoint": "enabled",
        "HttpProtocolIpv6": "disabled"
      },
      "EnclaveOptions": {
        "Enabled": false
      },
      "PlatformDetails": "Linux/UNIX",
      "UsageOperation": "RunInstances",
      "UsageOperationUpdateTime": "2022-01-23T13:21:30+00:00",
      "PrivateDnsNameOptions": {
        "HostnameType": "ip-name",
        "EnableResourceNameDnsARecord": false,
        "EnableResourceNameDnsAAAARecord": false
      }
    }
  ],
  [
    {
      "AmiLaunchIndex": 0,
      "ImageId": "ami-00fa576fb10a52a1c",
      "InstanceId": "i-02a13b2282c37c95c",
      "InstanceType": "t2.micro",
      "KeyName": "gitlab",
      "LaunchTime": "2022-01-23T13:21:30+00:00",
      "Monitoring": {
        "State": "disabled"
      },
      "Placement": {
        "AvailabilityZone": "us-east-1a",
        "GroupName": "",
        "Tenancy": "default"
      },
      "PrivateDnsName": "ip-172-31-85-158.ec2.internal",
      "PrivateIpAddress": "172.31.85.158",
      "ProductCodes": [],
      "PublicDnsName": "ec2-34-207-72-173.compute-1.amazonaws.com",
      "PublicIpAddress": "34.207.72.173",
      "State": {
        "Code": 16,
        "Name": "running"
      },
      "StateTransitionReason": "",
      "SubnetId": "subnet-0e5394ed6139c5e2f",
      "VpcId": "vpc-0172b0a9946fd3154",
      "Architecture": "x86_64",
      "BlockDeviceMappings": [
        {
          "DeviceName": "/dev/sda1",
          "Ebs": {
            "AttachTime": "2022-01-23T13:21:31+00:00",
            "DeleteOnTermination": true,
            "Status": "attached",
            "VolumeId": "vol-010285dd9e062cd9c"
          }
        }
      ],
      "ClientToken": "49675C81-0204-4501-A7EC-DD48C5F9339A",
      "EbsOptimized": false,
      "EnaSupport": true,
      "Hypervisor": "xen",
      "NetworkInterfaces": [
        {
          "Association": {
            "IpOwnerId": "amazon",
            "PublicDnsName": "ec2-34-207-72-173.compute-1.amazonaws.com",
            "PublicIp": "34.207.72.173"
          },
          "Attachment": {
            "AttachTime": "2022-01-23T13:21:30+00:00",
            "AttachmentId": "eni-attach-0be26ceec5ce50723",
            "DeleteOnTermination": true,
            "DeviceIndex": 0,
            "Status": "attached",
            "NetworkCardIndex": 0
          },
          "Description": "",
          "Groups": [
            {
              "GroupName": "Servers Security Group",
              "GroupId": "sg-0f22225882283843f"
            }
          ],
          "Ipv6Addresses": [],
          "MacAddress": "12:e9:13:1c:7c:05",
          "NetworkInterfaceId": "eni-0aace19b8c780fa3b",
          "OwnerId": "209310342610",
          "PrivateDnsName": "ip-172-31-85-158.ec2.internal",
          "PrivateIpAddress": "172.31.85.158",
          "PrivateIpAddresses": [
            {
              "Association": {
                "IpOwnerId": "amazon",
                "PublicDnsName": "ec2-34-207-72-173.compute-1.amazonaws.com",
                "PublicIp": "34.207.72.173"
              },
              "Primary": true,
              "PrivateDnsName": "ip-172-31-85-158.ec2.internal",
              "PrivateIpAddress": "172.31.85.158"
            }
          ],
          "SourceDestCheck": true,
          "Status": "in-use",
          "SubnetId": "subnet-0e5394ed6139c5e2f",
          "VpcId": "vpc-0172b0a9946fd3154",
          "InterfaceType": "interface"
        }
      ],
      "RootDeviceName": "/dev/sda1",
      "RootDeviceType": "ebs",
      "SecurityGroups": [
        {
          "GroupName": "Servers Security Group",
          "GroupId": "sg-0f22225882283843f"
        }
      ],
      "SourceDestCheck": true,
      "Tags": [
        {
          "Key": "Name",
          "Value": "db"
        }
      ],
      "VirtualizationType": "hvm",
      "CpuOptions": {
        "CoreCount": 1,
        "ThreadsPerCore": 1
      },
      "CapacityReservationSpecification": {
        "CapacityReservationPreference": "open"
      },
      "HibernationOptions": {
        "Configured": false
      },
      "MetadataOptions": {
        "State": "applied",
        "HttpTokens": "optional",
        "HttpPutResponseHopLimit": 1,
        "HttpEndpoint": "enabled",
        "HttpProtocolIpv6": "disabled"
      },
      "EnclaveOptions": {
        "Enabled": false
      },
      "PlatformDetails": "Linux/UNIX",
      "UsageOperation": "RunInstances",
      "UsageOperationUpdateTime": "2022-01-23T13:21:30+00:00",
      "PrivateDnsNameOptions": {
        "HostnameType": "ip-name",
        "EnableResourceNameDnsARecord": false,
        "EnableResourceNameDnsAAAARecord": false
      }
    }
  ],
  [
    {
      "AmiLaunchIndex": 0,
      "ImageId": "ami-00fa576fb10a52a1c",
      "InstanceId": "i-0d0b8ee7f94f0a2ab",
      "InstanceType": "t2.micro",
      "KeyName": "gitlab",
      "LaunchTime": "2022-01-23T13:21:30+00:00",
      "Monitoring": {
        "State": "disabled"
      },
      "Placement": {
        "AvailabilityZone": "us-east-1a",
        "GroupName": "",
        "Tenancy": "default"
      },
      "PrivateDnsName": "ip-172-31-88-51.ec2.internal",
      "PrivateIpAddress": "172.31.88.51",
      "ProductCodes": [],
      "PublicDnsName": "ec2-3-85-135-60.compute-1.amazonaws.com",
      "PublicIpAddress": "3.85.135.60",
      "State": {
        "Code": 16,
        "Name": "running"
      },
      "StateTransitionReason": "",
      "SubnetId": "subnet-0e5394ed6139c5e2f",
      "VpcId": "vpc-0172b0a9946fd3154",
      "Architecture": "x86_64",
      "BlockDeviceMappings": [
        {
          "DeviceName": "/dev/sda1",
          "Ebs": {
            "AttachTime": "2022-01-23T13:21:31+00:00",
            "DeleteOnTermination": true,
            "Status": "attached",
            "VolumeId": "vol-0adb30097b2eb26c6"
          }
        }
      ],
      "ClientToken": "0EB9742B-7A9E-41DB-B139-E929AEFF97FB",
      "EbsOptimized": false,
      "EnaSupport": true,
      "Hypervisor": "xen",
      "NetworkInterfaces": [
        {
          "Association": {
            "IpOwnerId": "amazon",
            "PublicDnsName": "ec2-3-85-135-60.compute-1.amazonaws.com",
            "PublicIp": "3.85.135.60"
          },
          "Attachment": {
            "AttachTime": "2022-01-23T13:21:30+00:00",
            "AttachmentId": "eni-attach-081c62c72c708744b",
            "DeleteOnTermination": true,
            "DeviceIndex": 0,
            "Status": "attached",
            "NetworkCardIndex": 0
          },
          "Description": "",
          "Groups": [
            {
              "GroupName": "Servers Security Group",
              "GroupId": "sg-0f22225882283843f"
            }
          ],
          "Ipv6Addresses": [],
          "MacAddress": "12:8d:f3:b6:c3:03",
          "NetworkInterfaceId": "eni-08dab72953748f52c",
          "OwnerId": "209310342610",
          "PrivateDnsName": "ip-172-31-88-51.ec2.internal",
          "PrivateIpAddress": "172.31.88.51",
          "PrivateIpAddresses": [
            {
              "Association": {
                "IpOwnerId": "amazon",
                "PublicDnsName": "ec2-3-85-135-60.compute-1.amazonaws.com",
                "PublicIp": "3.85.135.60"
              },
              "Primary": true,
              "PrivateDnsName": "ip-172-31-88-51.ec2.internal",
              "PrivateIpAddress": "172.31.88.51"
            }
          ],
          "SourceDestCheck": true,
          "Status": "in-use",
          "SubnetId": "subnet-0e5394ed6139c5e2f",
          "VpcId": "vpc-0172b0a9946fd3154",
          "InterfaceType": "interface"
        }
      ],
      "RootDeviceName": "/dev/sda1",
      "RootDeviceType": "ebs",
      "SecurityGroups": [
        {
          "GroupName": "Servers Security Group",
          "GroupId": "sg-0f22225882283843f"
        }
      ],
      "SourceDestCheck": true,
      "Tags": [
        {
          "Key": "Name",
          "Value": "web"
        }
      ],
      "VirtualizationType": "hvm",
      "CpuOptions": {
        "CoreCount": 1,
        "ThreadsPerCore": 1
      },
      "CapacityReservationSpecification": {
        "CapacityReservationPreference": "open"
      },
      "HibernationOptions": {
        "Configured": false
      },
      "MetadataOptions": {
        "State": "applied",
        "HttpTokens": "optional",
        "HttpPutResponseHopLimit": 1,
        "HttpEndpoint": "enabled",
        "HttpProtocolIpv6": "disabled"
      },
      "EnclaveOptions": {
        "Enabled": false
      },
      "PlatformDetails": "Linux/UNIX",
      "UsageOperation": "RunInstances",
      "UsageOperationUpdateTime": "2022-01-23T13:21:30+00:00",
      "PrivateDnsNameOptions": {
        "HostnameType": "ip-name",
        "EnableResourceNameDnsARecord": false,
        "EnableResourceNameDnsAAAARecord": false
      }
    }
  ]
]
